{
  "data": {
    "count": 69,
    "pages": 7,
    "offset": 0,
    "perPage": 10,
    "page": 1,
    "prevPage": 1,
    "nextPage": 2,
    "records": [{
        "transactionNo": "111020-01EMC3D55ENGGX8CPXBMDKA852",
        "userId": 111,
        "userName": "Hoang An",
        "phoneNumber": "+84983165861",
        "note": "Ghi chu",
        "totalAmount": 30000,
        "status": "NEW",
        "storeId": "1000",
        "paymentMethod": "COD",
        "paymentStatus": "PAID",
        "orderDetails": [{
            "productId": 0,
            "productName": "",
            "productType": "Combo",
            "quantity": 1
          },
          {
            "productId": 8829,
            "productName": "",
            "productType": "Product",
            "quantity": 2
          }
        ],
        "createdAt": 1606325202590
      },
      {
        "transactionNo": "111020-01EMC3EG43SZZ1WHY1T8MP0GKJ",
        "userId": 111,
        "userName": "Hoang An",
        "phoneNumber": "+84983165861",
        "note": "Ghi chu",
        "totalAmount": 30000,
        "status": "NEW",
        "storeId": "1000",
        "paymentMethod": "COD",
        "paymentStatus": "PAID",
        "orderDetails": [{
            "productId": 0,
            "productName": "",
            "productType": "Combo",
            "quantity": 1
          },
          {
            "productId": 8829,
            "productName": "",
            "productType": "Product",
            "quantity": 2
          }
        ],
        "orderAudits": [{
          "status": "NEW",
          "created_at": 1602454275
        }],
        "createdAt": 1606325202591
      },
      {
        "transactionNo": "111020-01EMC3RCGJRAWXKEN3BVP048KA",
        "userId": 111,
        "userName": "Hoang An",
        "phoneNumber": "+84983165861",
        "note": "Ghi chu",
        "totalAmount": 30000,
        "status": "NEW",
        "storeId": "1000",
        "paymentMethod": "COD",
        "paymentStatus": "PAID",
        "orderDetails": [{
            "productId": 0,
            "productName": "",
            "productType": "Combo",
            "quantity": 1
          },
          {
            "productId": 0,
            "productName": "",
            "productType": "Combo",
            "quantity": 1
          },
          {
            "productId": 8829,
            "productName": "",
            "productType": "Product",
            "quantity": 2
          }
        ],
        "orderAudits": [{
          "status": "NEW",
          "created_at": 1602454599
        }],
        "createdAt": 1606325202591
      },
      {
        "transactionNo": "111020-01EMC3RPX3QH262ZN020NR4W5S",
        "userId": 111,
        "userName": "Hoang An",
        "phoneNumber": "+84983165861",
        "note": "Ghi chu",
        "totalAmount": 30000,
        "status": "NEW",
        "storeId": "1000",
        "paymentMethod": "COD",
        "paymentStatus": "PAID",
        "orderDetails": [{
            "productId": 0,
            "productName": "",
            "productType": "Combo",
            "quantity": 1
          },
          {
            "productId": 0,
            "productName": "",
            "productType": "Combo",
            "quantity": 1
          },
          {
            "productId": 8829,
            "productName": "",
            "productType": "Product",
            "quantity": 2
          }
        ],
        "orderAudits": [{
          "status": "NEW",
          "created_at": 1602454610
        }],
        "createdAt": 1606325202593
      },
      {
        "transactionNo": "111020-01EMC5GACBDDHV7P6RWC8BXTQD",
        "userId": 1,
        "userName": "Hoang An",
        "phoneNumber": "+84983165861",
        "note": "Ghi chu",
        "totalAmount": 30000,
        "status": "NEW",
        "storeId": "1000",
        "paymentMethod": "COD",
        "paymentStatus": "PAID",
        "orderDetails": [{
            "productId": 0,
            "productName": "",
            "productType": "Combo",
            "quantity": 1
          },
          {
            "productId": 0,
            "productName": "",
            "productType": "Combo",
            "quantity": 1
          },
          {
            "productId": 8829,
            "productName": "",
            "productType": "Product",
            "quantity": 2
          }
        ],
        "orderAudits": [{
          "status": "NEW",
          "created_at": 1602456432
        }],
        "createdAt": 1606325202594
      },
      {
        "transactionNo": "141020-01EMKRHFTK0C26ZRY3YZ27SJ4H",
        "userId": 1,
        "userName": "Hoang An",
        "phoneNumber": "+84983165861",
        "note": "Ghi chu",
        "totalAmount": 30000,
        "status": "NEW",
        "storeId": "1000",
        "paymentMethod": "COD",
        "paymentStatus": "PAID",
        "orderDetails": [{
            "productId": 0,
            "productName": "",
            "productType": "Combo",
            "quantity": 1
          },
          {
            "productId": 0,
            "productName": "",
            "productType": "Combo",
            "quantity": 1
          },
          {
            "productId": 0,
            "productName": "",
            "productType": "Combo",
            "quantity": 1
          },
          {
            "productId": 8829,
            "productName": "",
            "productType": "Product",
            "quantity": 2
          }
        ],
        "orderAudits": [{
          "status": "NEW",
          "created_at": 1602711274
        }],
        "createdAt": 1606325202595
      },
      {
        "transactionNo": "141020-01EMKRMKSNT21Z8GN2GK04YSSJ",
        "userId": 1,
        "userName": "Hoang An",
        "phoneNumber": "+84983165861",
        "note": "Ghi chu",
        "totalAmount": 30000,
        "status": "NEW",
        "storeId": "1000",
        "paymentMethod": "MOMO",
        "paymentStatus": "",
        "orderDetails": [{
            "productId": 0,
            "productName": "",
            "productType": "Combo",
            "quantity": 1
          },
          {
            "productId": 0,
            "productName": "",
            "productType": "Combo",
            "quantity": 1
          },
          {
            "productId": 0,
            "productName": "",
            "productType": "Combo",
            "quantity": 1
          },
          {
            "productId": 8829,
            "productName": "",
            "productType": "Product",
            "quantity": 2
          }
        ],
        "orderAudits": [{
          "status": "NEW",
          "created_at": 1602711377
        }],
        "createdAt": 1606325202596
      },
      {
        "transactionNo": "141020-01EMKSDCWBSY6HNEST982KW8SV",
        "userId": 1,
        "userName": "Hoang An",
        "phoneNumber": "+84983165861",
        "note": "Ghi chu",
        "totalAmount": 30000,
        "status": "NEW",
        "storeId": "1000",
        "paymentMethod": "MOMO",
        "paymentStatus": "",
        "orderDetails": [{
            "productId": 0,
            "productName": "",
            "productType": "Combo",
            "quantity": 1
          },
          {
            "productId": 0,
            "productName": "",
            "productType": "Combo",
            "quantity": 1
          },
          {
            "productId": 0,
            "productName": "",
            "productType": "Combo",
            "quantity": 1
          },
          {
            "productId": 8829,
            "productName": "",
            "productType": "Product",
            "quantity": 2
          }
        ],
        "orderAudits": [{
          "status": "NEW",
          "created_at": 1602712189
        }],
        "createdAt": 1606325202597
      },
      {
        "transactionNo": "171020-01EMTAPTMNYP80R85NXBZNJ914",
        "userId": 1,
        "userName": "Hoang An",
        "phoneNumber": "+84983165861",
        "note": "Ghi chu",
        "totalAmount": 30000,
        "status": "NEW",
        "storeId": "1000",
        "paymentMethod": "MOMO",
        "paymentStatus": "",
        "orderDetails": [{
            "productId": 0,
            "productName": "",
            "productType": "Combo",
            "quantity": 1
          },
          {
            "productId": 0,
            "productName": "",
            "productType": "Combo",
            "quantity": 1
          },
          {
            "productId": 0,
            "productName": "",
            "productType": "Combo",
            "quantity": 1
          },
          {
            "productId": 8829,
            "productName": "",
            "productType": "Product",
            "quantity": 2
          }
        ],
        "orderAudits": [{
          "status": "NEW",
          "created_at": 1602931650
        }],
        "createdAt": 1606325202598
      },
      {
        "transactionNo": "171020-01EMTB02J5QR9XQ71EA80QX1HV",
        "userId": 1,
        "userName": "Hoang An",
        "phoneNumber": "+84983165861",
        "note": "Ghi chu",
        "totalAmount": 30000,
        "status": "NEW",
        "storeId": "1000",
        "paymentMethod": "MOMO",
        "paymentStatus": "",
        "orderDetails": [{
            "productId": 0,
            "productName": "",
            "productType": "Combo",
            "quantity": 1
          },
          {
            "productId": 0,
            "productName": "",
            "productType": "Combo",
            "quantity": 1
          },
          {
            "productId": 0,
            "productName": "",
            "productType": "Combo",
            "quantity": 1
          },
          {
            "productId": 8829,
            "productName": "",
            "productType": "Product",
            "quantity": 2
          }
        ],
        "orderAudits": [{
          "status": "NEW",
          "created_at": 1602931953
        }],
        "createdAt": 1606325202598
      }
    ]
  }
}