{
  "data": {
    "count": 41,
    "pages": 5,
    "offset": 0,
    "perPage": 10,
    "page": 1,
    "prevPage": 1,
    "nextPage": 2,
    "records": [{
        "transactionNo": "171020-01EMV40CXRZ62CA1ZBBZG32SB1",
        "userId": 1,
        "userName": "An Tang",
        "phoneNumber": "+84983165861",
        "note": "Ghi chu",
        "totalAmount": 30000,
        "status": "NEW",
        "storeId": "1000",
        "paymentMethod": "MOMO",
        "paymentStatus": "",
        "orderDetails": [{
            "productId": 1,
            "productName": "Combo bánh mì ốp la & cafe",
            "productType": "Combo",
            "quantity": 1,
            "price": 28000,
            "subtotal": 28000,
            "products": [{
                "productId": 13,
                "productName": "Bánh mì ốp la",
                "quantity": 1
              },
              {
                "productId": 1,
                "productName": "Cafe sữa đá (size vừa)",
                "quantity": 1
              }
            ]
          },
          {
            "productId": 12,
            "productName": "Gỏi cuốn",
            "productType": "Product",
            "quantity": 1,
            "price": 20000,
            "subtotal": 20000
          },
          {
            "productId": 5,
            "productName": "Bún thịt nướng",
            "productType": "Product",
            "quantity": 2,
            "price": 30000,
            "subtotal": 60000
          },
          {
            "productId": 11,
            "productName": "Bún bò",
            "productType": "Product",
            "quantity": 2,
            "price": 30000,
            "subtotal": 60000
          }
        ],
        "orderAudits": [{
          "status": "NEW",
          "created_at": 1602958179
        }],
        "createdAt": 1606726857646
      },
      {
        "transactionNo": "181020-01EMWTQJ16QG19V9RJ56066WK0",
        "userId": 1,
        "userName": "An Tang",
        "phoneNumber": "+84983165861",
        "note": "Ghi chu",
        "totalAmount": 30000,
        "status": "NEW",
        "storeId": "1000",
        "paymentMethod": "MOMO",
        "paymentStatus": "",
        "orderDetails": [{
            "productId": 1,
            "productName": "Combo bánh mì ốp la & cafe",
            "productType": "Combo",
            "quantity": 1,
            "price": 28000,
            "subtotal": 28000,
            "products": [{
                "productId": 13,
                "productName": "Bánh mì ốp la",
                "quantity": 1
              },
              {
                "productId": 1,
                "productName": "Cafe sữa đá (size vừa)",
                "quantity": 1
              }
            ]
          },
          {
            "productId": 12,
            "productName": "Gỏi cuốn",
            "productType": "Product",
            "quantity": 1,
            "price": 20000,
            "subtotal": 20000
          },
          {
            "productId": 5,
            "productName": "Bún thịt nướng",
            "productType": "Product",
            "quantity": 2,
            "price": 30000,
            "subtotal": 60000
          },
          {
            "productId": 11,
            "productName": "Bún bò",
            "productType": "Product",
            "quantity": 2,
            "price": 30000,
            "subtotal": 60000
          }
        ],
        "orderAudits": [{
          "status": "NEW",
          "created_at": 1603015564
        }],
        "createdAt": 1606726857647
      },
      {
        "transactionNo": "181020-01EMWTXXDKFGNZ1T972RSZ66WM",
        "userId": 1,
        "userName": "An Tang",
        "phoneNumber": "+84983165861",
        "note": "Ghi chu",
        "totalAmount": 30000,
        "status": "NEW",
        "storeId": "1000",
        "paymentMethod": "MOMO",
        "paymentStatus": "",
        "orderDetails": [{
            "productId": 1,
            "productName": "Combo bánh mì ốp la & cafe",
            "productType": "Combo",
            "quantity": 1,
            "price": 28000,
            "subtotal": 28000,
            "products": [{
                "productId": 13,
                "productName": "Bánh mì ốp la",
                "quantity": 1
              },
              {
                "productId": 1,
                "productName": "Cafe sữa đá (size vừa)",
                "quantity": 1
              }
            ]
          },
          {
            "productId": 12,
            "productName": "Gỏi cuốn",
            "productType": "Product",
            "quantity": 1,
            "price": 20000,
            "subtotal": 20000
          },
          {
            "productId": 5,
            "productName": "Bún thịt nướng",
            "productType": "Product",
            "quantity": 2,
            "price": 30000,
            "subtotal": 60000
          },
          {
            "productId": 11,
            "productName": "Bún bò",
            "productType": "Product",
            "quantity": 2,
            "price": 30000,
            "subtotal": 60000
          }
        ],
        "orderAudits": [{
          "status": "NEW",
          "created_at": 1603015771
        }],
        "createdAt": 1606726857650
      },
      {
        "transactionNo": "141120-01EQ2B7RE0W50VJKPTYWCCD523",
        "userId": 1,
        "userName": "An Tang",
        "phoneNumber": "+84983165861",
        "note": "Ghi chu",
        "totalAmount": 30000,
        "status": "NEW",
        "storeId": "1000",
        "paymentMethod": "MOMO",
        "paymentStatus": "",
        "orderDetails": [{
            "productId": 1,
            "productName": "Combo bánh mì ốp la & cafe",
            "productType": "Combo",
            "quantity": 1,
            "price": 28000,
            "subtotal": 28000,
            "products": [{
                "productId": 13,
                "productName": "Bánh mì ốp la",
                "quantity": 1
              },
              {
                "productId": 1,
                "productName": "Cafe sữa đá (size vừa)",
                "quantity": 1
              }
            ]
          },
          {
            "productId": 12,
            "productName": "Gỏi cuốn",
            "productType": "Product",
            "quantity": 1,
            "price": 20000,
            "subtotal": 20000
          },
          {
            "productId": 5,
            "productName": "Bún thịt nướng",
            "productType": "Product",
            "quantity": 2,
            "price": 30000,
            "subtotal": 60000
          },
          {
            "productId": 11,
            "productName": "Bún bò",
            "productType": "Product",
            "quantity": 2,
            "price": 30000,
            "subtotal": 60000
          }
        ],
        "orderAudits": [{
          "status": "NEW",
          "created_at": 1605348124
        }],
        "createdAt": 1606726857651
      },
      {
        "transactionNo": "141120-01EQ2BAD",
        "userId": 1,
        "userName": "An Tang",
        "phoneNumber": "+84983165861",
        "note": "Ghi chu",
        "totalAmount": 30000,
        "status": "NEW",
        "storeId": "1000",
        "paymentMethod": "MOMO",
        "paymentStatus": "",
        "orderDetails": [{
            "productId": 1,
            "productName": "Combo bánh mì ốp la & cafe",
            "productType": "Combo",
            "quantity": 1,
            "price": 28000,
            "subtotal": 28000,
            "products": [{
                "productId": 13,
                "productName": "Bánh mì ốp la",
                "quantity": 1
              },
              {
                "productId": 1,
                "productName": "Cafe sữa đá (size vừa)",
                "quantity": 1
              }
            ]
          },
          {
            "productId": 12,
            "productName": "Gỏi cuốn",
            "productType": "Product",
            "quantity": 1,
            "price": 20000,
            "subtotal": 20000
          },
          {
            "productId": 5,
            "productName": "Bún thịt nướng",
            "productType": "Product",
            "quantity": 2,
            "price": 30000,
            "subtotal": 60000
          },
          {
            "productId": 11,
            "productName": "Bún bò",
            "productType": "Product",
            "quantity": 2,
            "price": 30000,
            "subtotal": 60000
          }
        ],
        "orderAudits": [{
          "status": "NEW",
          "created_at": 1605348212
        }],
        "createdAt": 1606726857653
      },
      {
        "transactionNo": "141120-01EQ2BFH",
        "userId": 1,
        "userName": "An Tang",
        "phoneNumber": "+84983165861",
        "note": "Ghi chu",
        "totalAmount": 30000,
        "status": "NEW",
        "storeId": "1000",
        "paymentMethod": "MOMO",
        "paymentStatus": "",
        "orderDetails": [{
            "productId": 1,
            "productName": "Combo bánh mì ốp la & cafe",
            "productType": "Combo",
            "quantity": 1,
            "price": 28000,
            "subtotal": 28000,
            "products": [{
                "productId": 13,
                "productName": "Bánh mì ốp la",
                "quantity": 1
              },
              {
                "productId": 1,
                "productName": "Cafe sữa đá (size vừa)",
                "quantity": 1
              }
            ]
          },
          {
            "productId": 12,
            "productName": "Gỏi cuốn",
            "productType": "Product",
            "quantity": 1,
            "price": 20000,
            "subtotal": 20000
          },
          {
            "productId": 5,
            "productName": "Bún thịt nướng",
            "productType": "Product",
            "quantity": 2,
            "price": 30000,
            "subtotal": 60000
          },
          {
            "productId": 11,
            "productName": "Bún bò",
            "productType": "Product",
            "quantity": 2,
            "price": 30000,
            "subtotal": 60000
          }
        ],
        "orderAudits": [{
          "status": "NEW",
          "created_at": 1605348380
        }],
        "createdAt": 1606726857654
      },
      {
        "transactionNo": "141120-01EQ2D35",
        "userId": 1,
        "userName": "An Tang",
        "phoneNumber": "+84983165861",
        "note": "Ghi chu",
        "totalAmount": 30000,
        "status": "NEW",
        "storeId": "1000",
        "paymentMethod": "MOMO",
        "paymentStatus": "",
        "orderDetails": [{
            "productId": 1,
            "productName": "Combo bánh mì ốp la & cafe",
            "productType": "Combo",
            "quantity": 1,
            "price": 28000,
            "subtotal": 28000,
            "products": [{
                "productId": 13,
                "productName": "Bánh mì ốp la",
                "quantity": 1
              },
              {
                "productId": 1,
                "productName": "Cafe sữa đá (size vừa)",
                "quantity": 1
              }
            ]
          },
          {
            "productId": 12,
            "productName": "Gỏi cuốn",
            "productType": "Product",
            "quantity": 1,
            "price": 20000,
            "subtotal": 20000
          },
          {
            "productId": 5,
            "productName": "Bún thịt nướng",
            "productType": "Product",
            "quantity": 2,
            "price": 30000,
            "subtotal": 60000
          },
          {
            "productId": 11,
            "productName": "Bún bò",
            "productType": "Product",
            "quantity": 2,
            "price": 30000,
            "subtotal": 60000
          }
        ],
        "orderAudits": [{
          "status": "NEW",
          "created_at": 1605350071
        }],
        "createdAt": 1606726857655
      },
      {
        "transactionNo": "141120-01EQ2JT7",
        "userId": 1,
        "userName": "An Tang",
        "phoneNumber": "+84983165861",
        "note": "Ghi chu",
        "totalAmount": 30000,
        "status": "NEW",
        "storeId": "1000",
        "paymentMethod": "MOMO",
        "paymentStatus": "",
        "orderDetails": [{
            "productId": 1,
            "productName": "Combo bánh mì ốp la & cafe",
            "productType": "Combo",
            "quantity": 1,
            "price": 28000,
            "subtotal": 28000,
            "products": [{
                "productId": 13,
                "productName": "Bánh mì ốp la",
                "quantity": 1
              },
              {
                "productId": 1,
                "productName": "Cafe sữa đá (size vừa)",
                "quantity": 1
              }
            ]
          },
          {
            "productId": 12,
            "productName": "Gỏi cuốn",
            "productType": "Product",
            "quantity": 1,
            "price": 20000,
            "subtotal": 20000
          },
          {
            "productId": 5,
            "productName": "Bún thịt nướng",
            "productType": "Product",
            "quantity": 2,
            "price": 30000,
            "subtotal": 60000
          },
          {
            "productId": 11,
            "productName": "Bún bò",
            "productType": "Product",
            "quantity": 2,
            "price": 30000,
            "subtotal": 60000
          }
        ],
        "orderAudits": [{
          "status": "NEW",
          "created_at": 1605356070
        }],
        "createdAt": 1606726857656
      },
      {
        "transactionNo": "141120-01EQ2KK4",
        "userId": 1,
        "userName": "An Tang",
        "phoneNumber": "+84983165861",
        "note": "Ghi chu",
        "totalAmount": 30000,
        "status": "NEW",
        "storeId": "1000",
        "paymentMethod": "COD",
        "paymentStatus": "PAID",
        "orderDetails": [{
            "productId": 0,
            "productName": "Đông cô vs Ốp La",
            "productType": "Combo",
            "quantity": 1,
            "price": 0,
            "subtotal": 0
          },
          {
            "productId": 0,
            "productName": "Bánh Mì Cà Phê",
            "productType": "Combo",
            "quantity": 1,
            "price": 0,
            "subtotal": 0
          },
          {
            "productId": 0,
            "productName": "Mua 2 Thùng Tặng 1 Thùng Bia",
            "productType": "Combo",
            "quantity": 1,
            "price": 0,
            "subtotal": 0
          },
          {
            "productId": 8829,
            "productName": "Bánh Giò Gà Nấm Đông Cô",
            "productType": "Product",
            "quantity": 2,
            "price": 0,
            "subtotal": 0
          }
        ],
        "orderAudits": [{
          "status": "NEW",
          "created_at": 1605356885
        }],
        "createdAt": 1606726857657
      },
      {
        "transactionNo": "141120-01EQ2KXD",
        "userId": 5,
        "userName": "Viet Anh",
        "phoneNumber": "0988888888",
        "note": "abc",
        "totalAmount": 48000,
        "status": "NEW",
        "storeId": "1000",
        "paymentMethod": "COD",
        "paymentStatus": "PAID",
        "orderDetails": [{
            "productId": 1,
            "productName": "Combo bánh mì ốp la & cafe",
            "productType": "Combo",
            "quantity": 1,
            "price": 28000,
            "subtotal": 28000,
            "products": [{
                "productId": 13,
                "productName": "Bánh mì ốp la",
                "quantity": 1
              },
              {
                "productId": 1,
                "productName": "Cafe sữa đá (size vừa)",
                "quantity": 1
              }
            ]
          },
          {
            "productId": 12,
            "productName": "Gỏi cuốn",
            "productType": "Product",
            "quantity": 1,
            "price": 20000,
            "subtotal": 20000
          }
        ],
        "orderAudits": [{
          "status": "NEW",
          "created_at": 1605357222
        }],
        "createdAt": 1606726857657
      }
    ]
  }
}